{
  "$schema": "http://json-schema.org/draft-07/schema#",
  "type": "object",
  "properties": {
    "id": {
      "type": "string",
      "format": "uri"
    },
    "type": {
      "type": "string",
      "enum": [
        "follow",
        "undo_follow",
        "like",
        "undo_like"
      ]
    }
  },
  "required": [
    "id"
  ]
}
