{
  "version": "2.0",
  "software": {
    "name": "likestream",
    "version": "1.3.0"
  },
  "protocols": [
    "activitypub"
  ],
  "services": {
    "inbound": [],
    "outbound": []
  },
  "openRegistrations": false,
  "usage": {
    "users": {
      "total": 0,
      "activeHalfyear": 0,
      "activeMonth": 0
    },
    "localPosts": 0,
    "localComments": 0
  },
  "metadata": {
    "nodeName": "Likestream",
    "nodeDescription": "Likestream",
    "themeColor": "#00ffff"
  }
}
